741930 953092 525
5358 361698 443
265735 499646 449
104714 217432 386
681157 437877 509
351344 377361 423
780655 783489 362
807983 268681 509
571238 435282 470
961758 246962 525
202016 164004 365
98364 192844 383
793344 943691 525
497458 334590 449
539337 186067 470
686536 963184 525
636723 342126 509
47404 688499 509
347447 143939 443
661802 230758 509
312675 136548 443
953419 640046 525
95652 291689 443
914770 682656 525
136643 991403 525
4665 178229 383
393637 577904 470
40129 474623 449
755497 519835 509
842120 617371 525
271027 325615 389
66799 849872 525
507487 208402 449
474266 274352 449
666141 830084 504
335452 723986 509
260499 546449 470
579905 585693 434
775993 394379 509
227267 736921 509
808769 598864 509
922151 689745 525
895792 339087 525
200539 921545 525
159876 197365 370
806383 572204 509
83286 631124 509
568486 580174 390
211505 119169 383
388377 743576 509
465071 908879 525
821230 233302 509
557154 650063 509
226324 645107 509
991992 549339 525
684377 23650 509
374926 930641 525
960764 986448 458
564311 183092 470
388181 952230 525
93172 459726 449
934281 480613 525
202519 420419 449
308553 26684 443
952334 396970 525
91328 675692 509
100693 90223 341
178648 719386 509
736683 819044 468
128459 909203 525
852879 284406 525
181052 382829 443
676574 202387 509
233357 944426 525
731684 961888 525
855250 114821 525
621550 623830 372
702834 552006 509
983604 882363 507
67636 555408 470
63889 338259 443
269668 187116 443
73693 831494 509
430799 657644 509
47108 774812 509
464511 235046 449
915141 598475 525
440136 846834 525
195897 727957 509
881547 2402 525
641256 118278 509
442978 499521 444
287063 162662 443
450429 205000 449
375194 245700 441
493399 447564 444
458863 885122 525
753697 959913 525
239196 333948 407
314957 817573 509
115734 877968 525
593205 650516 509
905314 310038 525
287454 806617 509
82244 215675 383
219335 691407 509
372263 7615 443
262015 760520 509
1227 518061 470
442201 543500 470
31713 303554 443
554983 517058 452
509621 566444 470
249972 853071 525
993988 746364 525
48614 697969 509
570114 779875 509
102303 361898 443
328836 145445 443
25864 293809 443
434772 862719 525
89773 227460 386
734463 979688 525
139707 105432 354
133631 978871 525
792285 771481 437
38761 941172 525
137200 589674 470
912569 181540 525
38295 816113 509
82633 440557 449
246454 259787 363
479232 11579 449
417170 523918 470
124561 262653 443
772830 315643 509
73219 919330 525
178693 790642 509
533068 771778 509
210844 430265 449
533872 440742 470
667753 706068 504
869616 627848 525
180876 177953 365
57328 608553 470
570073 529921 452
61451 518253 470
292510 778661 509
919130 814317 525
99203 468015 449
350025 50879 443
800521 498721 509
588965 273835 470
613843 331021 470
875588 613593 525
763237 542513 509
724407 767453 424
252956 325768 407
370719 936164 525
523228 409246 470
379385 722701 509
224091 277572 443
188496 925986 525
399404 898646 525
214081 540008 470
385140 910093 525
984711 781319 525
375575 201176 443
763664 676272 504
960780 60969 525
457503 227812 449
178546 385072 443
2617 106259 354
995563 417010 525
514436 344599 470
844664 318289 525
169336 704526 509
794821 518258 509
579906 801383 509
586614 462330 470
350433 245084 441
687156 520047 509
522927 630247 509
649632 373395 509
900805 982868 507
992114 450215 525
184873 958115 525
248499 444728 449
249954 708282 509
245640 111154 443
692876 772406 504
267396 272351 407
974110 849483 507
650229 227401 509
256063 306877 407
954333 957780 383
626284 757851 509
526768 398432 470
389637 65227 443
1317 471562 449
548927 430570 470
413799 955524 525
408399 816916 509
393459 601206 470
650321 727053 504
495538 152420 449
218699 837573 509
36353 760912 509
822149 134915 509
278863 475998 449
502366 839500 525
755781 693650 504
353264 35672 443
381272 571641 470
49473 922842 525
428960 631792 509
896648 589172 525
828602 253103 509
6499 220872 386
425178 257229 449
115516 570317 470
85198 592477 470
975461 750598 525
876029 342047 525
673205 920979 525
361721 703849 509
71595 167832 383
253058 735774 509
426746 43864 449
379607 737497 509
474861 578655 470
882739 336807 525
336660 198840 443
168690 133286 383
959229 549636 525
675721 252407 509
35497 157642 383
556480 71257 470
642367 76025 509
477874 49770 449
571525 993377 525
673157 232006 509
164698 481177 449
28185 939312 525
339692 803879 509
519268 637851 509
819381 688070 504
231950 367325 441
629170 197263 509
829196 970302 525
427999 440636 400
86184 154585 375
928660 315710 525
424671 620873 470
237331 9233 443
591239 253124 470
47766 35057 324
747689 77594 509
861692 269456 525
420950 742389 509
601077 499378 470
124121 121318 336
889960 507389 525
51110 733926 509
65540 313060 443
831211 342275 509
181421 467352 449
270093 407366 441
224011 470884 449
599036 79907 470
17413 569215 470
756948 169155 509
856914 584384 525
622631 887320 525
258659 699728 509
934003 687889 525
670286 847999 525
480005 881243 525
408696 882237 525
577385 893637 525
984553 607687 525
661637 202154 509
623414 433063 470
952201 198360 525
479489 87971 449
220530 886092 525
890503 378951 525
180607 707045 509
796160 349984 509
3393 685398 509
542759 383699 470
397373 562083 470
151418 874326 525
566573 371763 470
464999 183542 449
607423 19332 470
583912 704159 509
70106 223019 386
655412 96331 509
942252 280046 525
364860 870085 525
196795 208456 373
87909 729125 509
712331 526424 509
370807 548196 470
456371 836595 509
773380 424841 509
979656 333746 525
600003 581161 434
991014 838787 507
365889 495274 449
396685 969440 525
229049 988382 525
687469 182263 509
604611 560158 434
972074 487258 525
424003 608274 470
57851 240830 443
860233 253578 525
502414 938892 525
172772 109251 383
976269 727267 525
209806 97640 383
934544 710092 525
149938 437578 449
90364 65264 351
140428 797986 509
546425 750215 509
960705 400860 525
504890 520131 470
986349 580849 525
531481 207292 470
162031 473073 449
69366 419221 449
970353 544833 525
275460 391099 441
546850 369909 470
701591 685625 442
712371 709997 380
826623 957056 525
584005 277377 470
139232 303706 443
418191 747371 509
989639 407371 525
11903 833621 509
638327 400978 509
356642 956133 525
79559 82786 320
960058 835257 525
251017 897014 525
137340 188444 383
111650 32171 354
848986 658927 525
371926 132030 443
202227 489249 449
835772 848433 525
321082 110746 443
846705 874762 432
937776 81227 525
819960 169133 509
620104 996957 525
562128 557389 359
510887 905334 525
815039 594896 509
194231 16489 383
435398 263164 449
398028 785643 509
647912 133608 509
161108 320755 443
5754 968533 525
291023 868358 525
709645 415525 509
919286 201639 525
838093 320446 525
37849 133512 354
803916 115137 509
679997 915508 525
555696 52625 470
772746 552918 509
237670 927474 525
815008 153525 509
936991 614680 525
226647 979216 525
545084 665884 509
37683 264688 443
832101 222566 509
384813 114871 443
162118 801556 509
326990 642784 509
961995 464515 525
169710 320071 443
272327 657010 509
884373 966474 507
619248 753583 509
68901 331743 443
828938 199474 509
594557 407951 470
701405 384169 509
789107 883276 525
423194 848073 525
